%YAML 1.1
%TAG !u! tag:unity3d.com,2011:
--- !u!114 &11400000
MonoBehaviour:
  m_ObjectHideFlags: 0
  m_CorrespondingSourceObject: {fileID: 0}
  m_PrefabInstance: {fileID: 0}
  m_PrefabAsset: {fileID: 0}
  m_GameObject: {fileID: 0}
  m_Enabled: 1
  m_EditorHideFlags: 0
  m_Script: {fileID: 11500000, guid: a6b194f808b1af6499c93410e504af42, type: 3}
  m_Name: sung50spine_Atlas
  m_EditorClassIdentifier: 
  atlasFile: {fileID: 4900000, guid: 7846086f11d4041f08c2411a14aeebc0, type: 3}
  materials:
  - {fileID: 2100000, guid: f87556821b07345acadbfcc3e0136d19, type: 2}
