%YAML 1.1
%TAG !u! tag:unity3d.com,2011:
--- !u!114 &11400000
MonoBehaviour:
  m_ObjectHideFlags: 0
  m_PrefabParentObject: {fileID: 0}
  m_PrefabInternal: {fileID: 0}
  m_GameObject: {fileID: 0}
  m_Enabled: 1
  m_EditorHideFlags: 0
  m_Script: {fileID: 11500000, guid: f1b3b4b945939a54ea0b23d3396115fb, type: 3}
  m_Name: tien ca bau cua2_SkeletonData
  m_EditorClassIdentifier: 
  atlasAssets:
  - {fileID: 11400000, guid: 0b73fdb276176a147a2462b7d4ad6f0d, type: 2}
  scale: 0.01
  skeletonJSON: {fileID: 4900000, guid: 528a900e472087e4986305cf566a7a3b, type: 3}
  fromAnimation: []
  toAnimation: []
  duration: []
  defaultMix: 0.2
  controller: {fileID: 9100000, guid: 54159d8c66fd346379ffbe58fce4082e, type: 2}
