
5.png
size: 381,381
format: RGBA8888
filter: Linear,Linear
repeat: none
5
  rotate: false
  xy: 2, 2
  size: 154, 151
  orig: 154, 151
  offset: 0, 0
  index: -1
Layer 100
  rotate: false
  xy: 2, 155
  size: 224, 224
  orig: 224, 224
  offset: 0, 0
  index: -1
Layer 50
  rotate: false
  xy: 228, 321
  size: 55, 58
  orig: 55, 58
  offset: 0, 0
  index: -1
Layer 50 copy
  rotate: false
  xy: 158, 107
  size: 49, 46
  orig: 49, 46
  offset: 0, 0
  index: -1
