
logo.png
size: 1073,1073
format: RGBA8888
filter: Linear,Linear
repeat: none
Layer 2483 copy
  rotate: false
  xy: 608, 603
  size: 140, 138
  orig: 140, 138
  offset: 0, 0
  index: -1
Layer 2485
  rotate: false
  xy: 608, 743
  size: 401, 328
  orig: 401, 328
  offset: 0, 0
  index: -1
Layer 2486
  rotate: false
  xy: 750, 645
  size: 114, 96
  orig: 114, 96
  offset: 0, 0
  index: -1
Layer 2486 copy 2
  rotate: false
  xy: 866, 666
  size: 102, 75
  orig: 102, 75
  offset: 0, 0
  index: -1
Layer 2486 copy 21
  rotate: false
  xy: 2, 2
  size: 530, 528
  orig: 530, 528
  offset: 0, 0
  index: -1
Layer 2486 copy 3
  rotate: true
  xy: 534, 438
  size: 92, 58
  orig: 92, 58
  offset: 0, 0
  index: -1
Layer 2487
  rotate: false
  xy: 2, 532
  size: 604, 539
  orig: 604, 539
  offset: 0, 0
  index: -1
