
bonus.png
size: 268,266
format: RGBA8888
filter: Linear,Linear
repeat: none
Ellipse 1
  rotate: false
  xy: 2, 114
  size: 150, 150
  orig: 150, 150
  offset: 0, 0
  index: -1
Layer 120 copy
  rotate: false
  xy: 154, 151
  size: 112, 113
  orig: 112, 113
  offset: 0, 0
  index: -1
bonus
  rotate: false
  xy: 154, 106
  size: 105, 43
  orig: 105, 43
  offset: 0, 0
  index: -1
f
  rotate: true
  xy: 2, 7
  size: 105, 145
  orig: 105, 145
  offset: 0, 0
  index: -1
