%YAML 1.1
%TAG !u! tag:unity3d.com,2011:
--- !u!114 &11400000
MonoBehaviour:
  m_ObjectHideFlags: 0
  m_CorrespondingSourceObject: {fileID: 0}
  m_PrefabInstance: {fileID: 0}
  m_PrefabAsset: {fileID: 0}
  m_GameObject: {fileID: 0}
  m_Enabled: 1
  m_EditorHideFlags: 0
  m_Script: {fileID: 11500000, guid: 84a92b25f83d49b9bc132d206b370281, type: 3}
  m_Name: TMP icons
  m_EditorClassIdentifier: 
  hashCode: -1952814805
  material: {fileID: 4209624348675604368}
  materialHashCode: 0
  m_Version: 1.1.0
  spriteSheet: {fileID: 2800000, guid: 3fa73ed2e427423469ffd6b00f2275c2, type: 3}
  m_SpriteCharacterTable:
  - m_ElementType: 2
    m_Unicode: 0
    m_GlyphIndex: 0
    m_Scale: 1
    m_Name: cao10k
    m_HashCode: -462771385
  - m_ElementType: 2
    m_Unicode: 0
    m_GlyphIndex: 1
    m_Scale: 1
    m_Name: cao20k
    m_HashCode: -462770236
  - m_ElementType: 2
    m_Unicode: 0
    m_GlyphIndex: 2
    m_Scale: 1
    m_Name: gem
    m_HashCode: 110863
  - m_ElementType: 2
    m_Unicode: 0
    m_GlyphIndex: 3
    m_Scale: 1
    m_Name: key
    m_HashCode: 115479
  - m_ElementType: 2
    m_Unicode: 0
    m_GlyphIndex: 4
    m_Scale: 1
    m_Name: freezeSkill
    m_HashCode: -749848902
  - m_ElementType: 2
    m_Unicode: 0
    m_GlyphIndex: 5
    m_Scale: 1
    m_Name: followSkill
    m_HashCode: 1839339680
  m_SpriteGlyphTable:
  - m_Index: 0
    m_Metrics:
      m_Width: 96
      m_Height: 57
      m_HorizontalBearingX: 0
      m_HorizontalBearingY: 50
      m_HorizontalAdvance: 96
    m_GlyphRect:
      m_X: 427
      m_Y: 834
      m_Width: 96
      m_Height: 57
    m_Scale: 1
    m_AtlasIndex: 0
    sprite: {fileID: 21300000, guid: c1540879dde0c8a4f99a3cc2ce027c25, type: 3}
  - m_Index: 1
    m_Metrics:
      m_Width: 96
      m_Height: 57
      m_HorizontalBearingX: 0
      m_HorizontalBearingY: 50
      m_HorizontalAdvance: 96
    m_GlyphRect:
      m_X: 427
      m_Y: 775
      m_Width: 96
      m_Height: 57
    m_Scale: 1
    m_AtlasIndex: 0
    sprite: {fileID: 21300000, guid: c1540879dde0c8a4f99a3cc2ce027c25, type: 3}
  - m_Index: 2
    m_Metrics:
      m_Width: 52
      m_Height: 45
      m_HorizontalBearingX: 0
      m_HorizontalBearingY: 40
      m_HorizontalAdvance: 52
    m_GlyphRect:
      m_X: 427
      m_Y: 728
      m_Width: 52
      m_Height: 45
    m_Scale: 1
    m_AtlasIndex: 0
    sprite: {fileID: 21300000, guid: c1540879dde0c8a4f99a3cc2ce027c25, type: 3}
  - m_Index: 3
    m_Metrics:
      m_Width: 123
      m_Height: 130
      m_HorizontalBearingX: 0
      m_HorizontalBearingY: 123
      m_HorizontalAdvance: 123
    m_GlyphRect:
      m_X: 427
      m_Y: 893
      m_Width: 123
      m_Height: 130
    m_Scale: 1
    m_AtlasIndex: 0
    sprite: {fileID: 21300000, guid: c1540879dde0c8a4f99a3cc2ce027c25, type: 3}
  - m_Index: 4
    m_Metrics:
      m_Width: 424
      m_Height: 424
      m_HorizontalBearingX: 0
      m_HorizontalBearingY: 400
      m_HorizontalAdvance: 424
    m_GlyphRect:
      m_X: 1
      m_Y: 599
      m_Width: 424
      m_Height: 424
    m_Scale: 1
    m_AtlasIndex: 0
    sprite: {fileID: 21300000, guid: c1540879dde0c8a4f99a3cc2ce027c25, type: 3}
  - m_Index: 5
    m_Metrics:
      m_Width: 424
      m_Height: 424
      m_HorizontalBearingX: 0
      m_HorizontalBearingY: 400
      m_HorizontalAdvance: 424
    m_GlyphRect:
      m_X: 1
      m_Y: 173
      m_Width: 424
      m_Height: 424
    m_Scale: 1
    m_AtlasIndex: 0
    sprite: {fileID: 21300000, guid: c1540879dde0c8a4f99a3cc2ce027c25, type: 3}
  spriteInfoList: []
  fallbackSpriteAssets: []
--- !u!21 &4209624348675604368
Material:
  serializedVersion: 6
  m_ObjectHideFlags: 1
  m_CorrespondingSourceObject: {fileID: 0}
  m_PrefabInstance: {fileID: 0}
  m_PrefabAsset: {fileID: 0}
  m_Name: TextMeshPro/Sprite
  m_Shader: {fileID: 4800000, guid: cf81c85f95fe47e1a27f6ae460cf182c, type: 3}
  m_ShaderKeywords: 
  m_LightmapFlags: 4
  m_EnableInstancingVariants: 0
  m_DoubleSidedGI: 0
  m_CustomRenderQueue: -1
  stringTagMap: {}
  disabledShaderPasses: []
  m_SavedProperties:
    serializedVersion: 3
    m_TexEnvs:
    - _MainTex:
        m_Texture: {fileID: 2800000, guid: 3fa73ed2e427423469ffd6b00f2275c2, type: 3}
        m_Scale: {x: 1, y: 1}
        m_Offset: {x: 0, y: 0}
    m_Floats:
    - _ColorMask: 15
    - _Stencil: 0
    - _StencilComp: 8
    - _StencilOp: 0
    - _StencilReadMask: 255
    - _StencilWriteMask: 255
    - _UseUIAlphaClip: 0
    m_Colors:
    - _ClipRect: {r: -32767, g: -32767, b: 32767, a: 32767}
    - _Color: {r: 1, g: 1, b: 1, a: 1}
