
be2.png
size: 84,84
format: RGBA8888
filter: Linear,Linear
repeat: none
Layer 23 copy
  rotate: false
  xy: 2, 43
  size: 62, 39
  orig: 62, 39
  offset: 0, 0
  index: -1
Layer 28 copy 41
  rotate: false
  xy: 2, 2
  size: 62, 39
  orig: 62, 39
  offset: 0, 0
  index: -1
