
diachu.png
size: 606,606
format: RGBA8888
filter: Linear,Linear
repeat: none
Layer 2521
  rotate: false
  xy: 304, 394
  size: 185, 210
  orig: 185, 210
  offset: 0, 0
  index: -1
Layer 2524
  rotate: false
  xy: 553, 311
  size: 45, 45
  orig: 45, 45
  offset: 0, 0
  index: -1
Layer 2525
  rotate: true
  xy: 234, 46
  size: 175, 146
  orig: 175, 146
  offset: 0, 0
  index: -1
Layer 2526
  rotate: false
  xy: 382, 126
  size: 70, 107
  orig: 70, 107
  offset: 0, 0
  index: -1
Layer 2527
  rotate: false
  xy: 304, 235
  size: 181, 157
  orig: 181, 157
  offset: 0, 0
  index: -1
Layer 2528
  rotate: false
  xy: 382, 28
  size: 54, 96
  orig: 54, 96
  offset: 0, 0
  index: -1
Layer 2529
  rotate: true
  xy: 2, 2
  size: 219, 230
  orig: 219, 230
  offset: 0, 0
  index: -1
Rounded Rectangle 1 copy
  rotate: false
  xy: 2, 223
  size: 300, 381
  orig: 300, 381
  offset: 0, 0
  index: -1
Rounded Rectangle 2
  rotate: true
  xy: 487, 95
  size: 261, 64
  orig: 261, 64
  offset: 0, 0
  index: -1
diachu
  rotate: true
  xy: 491, 358
  size: 246, 94
  orig: 246, 94
  offset: 0, 0
  index: -1
