
be vip 3.png
size: 235,235
format: RGBA8888
filter: Linear,Linear
repeat: none
Group 2 copy 2
  rotate: false
  xy: 2, 179
  size: 231, 54
  orig: 231, 54
  offset: 0, 0
  index: -1
Group 2 copy 3
  rotate: false
  xy: 2, 123
  size: 231, 54
  orig: 231, 54
  offset: 0, 0
  index: -1
