
sung3spine.png
size: 188,188
format: RGBA8888
filter: Linear,Linear
repeat: none
Gradient Map 3
  rotate: false
  xy: 2, 60
  size: 101, 126
  orig: 101, 126
  offset: 0, 0
  index: -1
Layer 10
  rotate: false
  xy: 105, 17
  size: 65, 88
  orig: 65, 88
  offset: 0, 0
  index: -1
Layer 2 copy
  rotate: false
  xy: 105, 107
  size: 81, 79
  orig: 81, 79
  offset: 0, 0
  index: -1
Layer 37
  rotate: false
  xy: 2, 2
  size: 89, 56
  orig: 89, 56
  offset: 0, 0
  index: -1
