%YAML 1.1
%TAG !u! tag:unity3d.com,2011:
--- !u!74 &7400000
AnimationClip:
  m_ObjectHideFlags: 0
  m_CorrespondingSourceObject: {fileID: 0}
  m_PrefabInstance: {fileID: 0}
  m_PrefabAsset: {fileID: 0}
  m_Name: Flash On
  serializedVersion: 6
  m_Legacy: 0
  m_Compressed: 0
  m_UseHighQualityCurve: 1
  m_RotationCurves: []
  m_CompressedRotationCurves: []
  m_EulerCurves: []
  m_PositionCurves: []
  m_ScaleCurves: []
  m_FloatCurves:
  - curve:
      serializedVersion: 2
      m_Curve:
      - serializedVersion: 3
        time: 0
        value: 1
        inSlope: 0
        outSlope: 0
        tangentMode: 136
        weightedMode: 0
        inWeight: 0.33333334
        outWeight: 0.33333334
      m_PreInfinity: 2
      m_PostInfinity: 2
      m_RotationOrder: 4
    attribute: m_Color.r
    path: Background
    classID: 114
    script: {fileID: 11500000, guid: fe87c0e1cc204ed48ad3b37840f39efc, type: 3}
  - curve:
      serializedVersion: 2
      m_Curve:
      - serializedVersion: 3
        time: 0
        value: 1
        inSlope: 0
        outSlope: 0
        tangentMode: 136
        weightedMode: 0
        inWeight: 0.33333334
        outWeight: 0.33333334
      m_PreInfinity: 2
      m_PostInfinity: 2
      m_RotationOrder: 4
    attribute: m_Color.g
    path: Background
    classID: 114
    script: {fileID: 11500000, guid: fe87c0e1cc204ed48ad3b37840f39efc, type: 3}
  - curve:
      serializedVersion: 2
      m_Curve:
      - serializedVersion: 3
        time: 0
        value: 1
        inSlope: 0
        outSlope: 0
        tangentMode: 136
        weightedMode: 0
        inWeight: 0.33333334
        outWeight: 0.33333334
      m_PreInfinity: 2
      m_PostInfinity: 2
      m_RotationOrder: 4
    attribute: m_Color.b
    path: Background
    classID: 114
    script: {fileID: 11500000, guid: fe87c0e1cc204ed48ad3b37840f39efc, type: 3}
  - curve:
      serializedVersion: 2
      m_Curve:
      - serializedVersion: 3
        time: 0
        value: 0
        inSlope: 0
        outSlope: 0
        tangentMode: 136
        weightedMode: 0
        inWeight: 0.33333334
        outWeight: 0.33333334
      - serializedVersion: 3
        time: 0.26666668
        value: 0
        inSlope: 0
        outSlope: 0
        tangentMode: 136
        weightedMode: 0
        inWeight: 0.33333334
        outWeight: 0.33333334
      - serializedVersion: 3
        time: 0.5833333
        value: 0.75
        inSlope: 0
        outSlope: 0
        tangentMode: 136
        weightedMode: 0
        inWeight: 0.33333334
        outWeight: 0.33333334
      m_PreInfinity: 2
      m_PostInfinity: 2
      m_RotationOrder: 4
    attribute: m_Color.a
    path: Background
    classID: 114
    script: {fileID: 11500000, guid: fe87c0e1cc204ed48ad3b37840f39efc, type: 3}
  - curve:
      serializedVersion: 2
      m_Curve:
      - serializedVersion: 3
        time: 0
        value: 1
        inSlope: Infinity
        outSlope: Infinity
        tangentMode: 103
        weightedMode: 0
        inWeight: 0
        outWeight: 0
      - serializedVersion: 3
        time: 0.59999996
        value: 0
        inSlope: Infinity
        outSlope: Infinity
        tangentMode: 103
        weightedMode: 0
        inWeight: 0
        outWeight: 0
      m_PreInfinity: 2
      m_PostInfinity: 2
      m_RotationOrder: 4
    attribute: m_IsActive
    path: Flash
    classID: 1
    script: {fileID: 0}
  m_PPtrCurves:
  - curve:
    - time: 0
      value: {fileID: 21300000, guid: 8d29b11ef69882b459576fc6e51c45a6, type: 3}
    - time: 0.016666668
      value: {fileID: 21300000, guid: 2649a088d94123b47ada091a0d0ea433, type: 3}
    - time: 0.033333335
      value: {fileID: 21300000, guid: 6e3c7f2abd8f8a74d9416a46c2e51ed8, type: 3}
    - time: 0.05
      value: {fileID: 21300000, guid: 39ea74664e013004d8691b4115f456ee, type: 3}
    - time: 0.06666667
      value: {fileID: 21300000, guid: efd3fe211b5ffa64a8817e193da6bd32, type: 3}
    - time: 0.083333336
      value: {fileID: 21300000, guid: d55dfa56c7829794e9f3b85165f73b99, type: 3}
    - time: 0.1
      value: {fileID: 21300000, guid: cc2297338b9e2454b8d08cdabd2101bd, type: 3}
    - time: 0.11666667
      value: {fileID: 21300000, guid: b2c574e4e2673964587a6dd9a58d78c2, type: 3}
    - time: 0.13333334
      value: {fileID: 21300000, guid: ca613daca1bcb8346ba86a94284bd64b, type: 3}
    - time: 0.15
      value: {fileID: 21300000, guid: f4aec770cc93dea47a3f03dee12bb60e, type: 3}
    - time: 0.16666667
      value: {fileID: 21300000, guid: b5a3902d813df694f88ee61a5934060f, type: 3}
    - time: 0.18333334
      value: {fileID: 21300000, guid: 3033883b667ca704bbc3a8192c3a35b5, type: 3}
    - time: 0.2
      value: {fileID: 21300000, guid: eac1e9227bd096e41ae8ec0aa7752252, type: 3}
    - time: 0.21666667
      value: {fileID: 21300000, guid: 044ba16a75f563a4e813453afd3ad775, type: 3}
    - time: 0.23333333
      value: {fileID: 21300000, guid: f0f42fa097838b547be333755d1d48b8, type: 3}
    - time: 0.25
      value: {fileID: 21300000, guid: 1f81afa48fe589e44b1119ac2a3d0ade, type: 3}
    - time: 0.26666668
      value: {fileID: 21300000, guid: 6e72cb631f58d154d80d2a8de549c9d2, type: 3}
    - time: 0.28333333
      value: {fileID: 21300000, guid: a2e464ce7ed5b5e4caa7045401fbbf23, type: 3}
    - time: 0.3
      value: {fileID: 21300000, guid: cfd78842413514b4b87751492d893c3d, type: 3}
    - time: 0.31666666
      value: {fileID: 21300000, guid: b59518164fd9d6d499dfda5a9ccaea07, type: 3}
    - time: 0.33333334
      value: {fileID: 21300000, guid: e49764930ead66b4295b8140d015b17a, type: 3}
    - time: 0.35
      value: {fileID: 21300000, guid: eded2a1a423177c4ab7da5ac41afd1c2, type: 3}
    - time: 0.36666667
      value: {fileID: 21300000, guid: 38824964db0297a4bbbcfdac78e82b5d, type: 3}
    - time: 0.38333333
      value: {fileID: 21300000, guid: 4c35719bc49b5c44a9913f112fe269e7, type: 3}
    - time: 0.4
      value: {fileID: 21300000, guid: aa5d42e97e26ebe468a7271dfd8d5f4b, type: 3}
    - time: 0.41666666
      value: {fileID: 21300000, guid: e167e4b8feb96b8448f332e4f34b661c, type: 3}
    - time: 0.43333334
      value: {fileID: 21300000, guid: 097d79e87f6b94f49bfb662dcec5aafa, type: 3}
    - time: 0.45
      value: {fileID: 21300000, guid: 352b79a32551a5c45a5a694725de7580, type: 3}
    - time: 0.46666667
      value: {fileID: 21300000, guid: 40a14ac72860f8b46bf266d4d0bedf94, type: 3}
    - time: 0.48333332
      value: {fileID: 21300000, guid: c802410fb4419684680958f599d678cc, type: 3}
    - time: 0.5
      value: {fileID: 21300000, guid: 7033560aaaed6ce44afdbe94fdd4a22f, type: 3}
    - time: 0.51666665
      value: {fileID: 21300000, guid: 2def227643e49cc4199a79e6fe843ad3, type: 3}
    - time: 0.53333336
      value: {fileID: 21300000, guid: b7e0a8ef7b32fad45a669a1fa87b6826, type: 3}
    - time: 0.55
      value: {fileID: 21300000, guid: 77368c89c7b839a47a47e52e999f130b, type: 3}
    - time: 0.56666666
      value: {fileID: 21300000, guid: 88de191138ee4834f8642a5b2661bd59, type: 3}
    - time: 0.5833333
      value: {fileID: 21300000, guid: 81d964ac7fdc6fd4a84e50062026e618, type: 3}
    attribute: m_Sprite
    path: Flash
    classID: 114
    script: {fileID: 11500000, guid: fe87c0e1cc204ed48ad3b37840f39efc, type: 3}
  m_SampleRate: 60
  m_WrapMode: 0
  m_Bounds:
    m_Center: {x: 0, y: 0, z: 0}
    m_Extent: {x: 0, y: 0, z: 0}
  m_ClipBindingConstant:
    genericBindings:
    - serializedVersion: 2
      path: 4080383872
      attribute: 304273561
      script: {fileID: 11500000, guid: fe87c0e1cc204ed48ad3b37840f39efc, type: 3}
      typeID: 114
      customType: 0
      isPPtrCurve: 0
    - serializedVersion: 2
      path: 1846505479
      attribute: 2086281974
      script: {fileID: 0}
      typeID: 1
      customType: 0
      isPPtrCurve: 0
    - serializedVersion: 2
      path: 1846505479
      attribute: 2015549526
      script: {fileID: 11500000, guid: fe87c0e1cc204ed48ad3b37840f39efc, type: 3}
      typeID: 114
      customType: 0
      isPPtrCurve: 1
    - serializedVersion: 2
      path: 4080383872
      attribute: 2526845255
      script: {fileID: 11500000, guid: fe87c0e1cc204ed48ad3b37840f39efc, type: 3}
      typeID: 114
      customType: 0
      isPPtrCurve: 0
    - serializedVersion: 2
      path: 4080383872
      attribute: 4215373228
      script: {fileID: 11500000, guid: fe87c0e1cc204ed48ad3b37840f39efc, type: 3}
      typeID: 114
      customType: 0
      isPPtrCurve: 0
    - serializedVersion: 2
      path: 4080383872
      attribute: 2334886179
      script: {fileID: 11500000, guid: fe87c0e1cc204ed48ad3b37840f39efc, type: 3}
      typeID: 114
      customType: 0
      isPPtrCurve: 0
    pptrCurveMapping:
    - {fileID: 21300000, guid: 8d29b11ef69882b459576fc6e51c45a6, type: 3}
    - {fileID: 21300000, guid: 2649a088d94123b47ada091a0d0ea433, type: 3}
    - {fileID: 21300000, guid: 6e3c7f2abd8f8a74d9416a46c2e51ed8, type: 3}
    - {fileID: 21300000, guid: 39ea74664e013004d8691b4115f456ee, type: 3}
    - {fileID: 21300000, guid: efd3fe211b5ffa64a8817e193da6bd32, type: 3}
    - {fileID: 21300000, guid: d55dfa56c7829794e9f3b85165f73b99, type: 3}
    - {fileID: 21300000, guid: cc2297338b9e2454b8d08cdabd2101bd, type: 3}
    - {fileID: 21300000, guid: b2c574e4e2673964587a6dd9a58d78c2, type: 3}
    - {fileID: 21300000, guid: ca613daca1bcb8346ba86a94284bd64b, type: 3}
    - {fileID: 21300000, guid: f4aec770cc93dea47a3f03dee12bb60e, type: 3}
    - {fileID: 21300000, guid: b5a3902d813df694f88ee61a5934060f, type: 3}
    - {fileID: 21300000, guid: 3033883b667ca704bbc3a8192c3a35b5, type: 3}
    - {fileID: 21300000, guid: eac1e9227bd096e41ae8ec0aa7752252, type: 3}
    - {fileID: 21300000, guid: 044ba16a75f563a4e813453afd3ad775, type: 3}
    - {fileID: 21300000, guid: f0f42fa097838b547be333755d1d48b8, type: 3}
    - {fileID: 21300000, guid: 1f81afa48fe589e44b1119ac2a3d0ade, type: 3}
    - {fileID: 21300000, guid: 6e72cb631f58d154d80d2a8de549c9d2, type: 3}
    - {fileID: 21300000, guid: a2e464ce7ed5b5e4caa7045401fbbf23, type: 3}
    - {fileID: 21300000, guid: cfd78842413514b4b87751492d893c3d, type: 3}
    - {fileID: 21300000, guid: b59518164fd9d6d499dfda5a9ccaea07, type: 3}
    - {fileID: 21300000, guid: e49764930ead66b4295b8140d015b17a, type: 3}
    - {fileID: 21300000, guid: eded2a1a423177c4ab7da5ac41afd1c2, type: 3}
    - {fileID: 21300000, guid: 38824964db0297a4bbbcfdac78e82b5d, type: 3}
    - {fileID: 21300000, guid: 4c35719bc49b5c44a9913f112fe269e7, type: 3}
    - {fileID: 21300000, guid: aa5d42e97e26ebe468a7271dfd8d5f4b, type: 3}
    - {fileID: 21300000, guid: e167e4b8feb96b8448f332e4f34b661c, type: 3}
    - {fileID: 21300000, guid: 097d79e87f6b94f49bfb662dcec5aafa, type: 3}
    - {fileID: 21300000, guid: 352b79a32551a5c45a5a694725de7580, type: 3}
    - {fileID: 21300000, guid: 40a14ac72860f8b46bf266d4d0bedf94, type: 3}
    - {fileID: 21300000, guid: c802410fb4419684680958f599d678cc, type: 3}
    - {fileID: 21300000, guid: 7033560aaaed6ce44afdbe94fdd4a22f, type: 3}
    - {fileID: 21300000, guid: 2def227643e49cc4199a79e6fe843ad3, type: 3}
    - {fileID: 21300000, guid: b7e0a8ef7b32fad45a669a1fa87b6826, type: 3}
    - {fileID: 21300000, guid: 77368c89c7b839a47a47e52e999f130b, type: 3}
    - {fileID: 21300000, guid: 88de191138ee4834f8642a5b2661bd59, type: 3}
    - {fileID: 21300000, guid: 81d964ac7fdc6fd4a84e50062026e618, type: 3}
  m_AnimationClipSettings:
    serializedVersion: 2
    m_AdditiveReferencePoseClip: {fileID: 0}
    m_AdditiveReferencePoseTime: 0
    m_StartTime: 0
    m_StopTime: 0.59999996
    m_OrientationOffsetY: 0
    m_Level: 0
    m_CycleOffset: 0
    m_HasAdditiveReferencePose: 0
    m_LoopTime: 0
    m_LoopBlend: 0
    m_LoopBlendOrientation: 0
    m_LoopBlendPositionY: 0
    m_LoopBlendPositionXZ: 0
    m_KeepOriginalOrientation: 0
    m_KeepOriginalPositionY: 1
    m_KeepOriginalPositionXZ: 0
    m_HeightFromFeet: 0
    m_Mirror: 0
  m_EditorCurves:
  - curve:
      serializedVersion: 2
      m_Curve:
      - serializedVersion: 3
        time: 0
        value: 1
        inSlope: 0
        outSlope: 0
        tangentMode: 136
        weightedMode: 0
        inWeight: 0.33333334
        outWeight: 0.33333334
      m_PreInfinity: 2
      m_PostInfinity: 2
      m_RotationOrder: 4
    attribute: m_Color.r
    path: Background
    classID: 114
    script: {fileID: 11500000, guid: fe87c0e1cc204ed48ad3b37840f39efc, type: 3}
  - curve:
      serializedVersion: 2
      m_Curve:
      - serializedVersion: 3
        time: 0
        value: 1
        inSlope: 0
        outSlope: 0
        tangentMode: 136
        weightedMode: 0
        inWeight: 0.33333334
        outWeight: 0.33333334
      m_PreInfinity: 2
      m_PostInfinity: 2
      m_RotationOrder: 4
    attribute: m_Color.g
    path: Background
    classID: 114
    script: {fileID: 11500000, guid: fe87c0e1cc204ed48ad3b37840f39efc, type: 3}
  - curve:
      serializedVersion: 2
      m_Curve:
      - serializedVersion: 3
        time: 0
        value: 1
        inSlope: 0
        outSlope: 0
        tangentMode: 136
        weightedMode: 0
        inWeight: 0.33333334
        outWeight: 0.33333334
      m_PreInfinity: 2
      m_PostInfinity: 2
      m_RotationOrder: 4
    attribute: m_Color.b
    path: Background
    classID: 114
    script: {fileID: 11500000, guid: fe87c0e1cc204ed48ad3b37840f39efc, type: 3}
  - curve:
      serializedVersion: 2
      m_Curve:
      - serializedVersion: 3
        time: 0
        value: 0
        inSlope: 0
        outSlope: 0
        tangentMode: 136
        weightedMode: 0
        inWeight: 0.33333334
        outWeight: 0.33333334
      - serializedVersion: 3
        time: 0.26666668
        value: 0
        inSlope: 0
        outSlope: 0
        tangentMode: 136
        weightedMode: 0
        inWeight: 0.33333334
        outWeight: 0.33333334
      - serializedVersion: 3
        time: 0.5833333
        value: 0.75
        inSlope: 0
        outSlope: 0
        tangentMode: 136
        weightedMode: 0
        inWeight: 0.33333334
        outWeight: 0.33333334
      m_PreInfinity: 2
      m_PostInfinity: 2
      m_RotationOrder: 4
    attribute: m_Color.a
    path: Background
    classID: 114
    script: {fileID: 11500000, guid: fe87c0e1cc204ed48ad3b37840f39efc, type: 3}
  - curve:
      serializedVersion: 2
      m_Curve:
      - serializedVersion: 3
        time: 0
        value: 1
        inSlope: Infinity
        outSlope: Infinity
        tangentMode: 103
        weightedMode: 0
        inWeight: 0
        outWeight: 0
      - serializedVersion: 3
        time: 0.59999996
        value: 0
        inSlope: Infinity
        outSlope: Infinity
        tangentMode: 103
        weightedMode: 0
        inWeight: 0
        outWeight: 0
      m_PreInfinity: 2
      m_PostInfinity: 2
      m_RotationOrder: 4
    attribute: m_IsActive
    path: Flash
    classID: 1
    script: {fileID: 0}
  m_EulerEditorCurves: []
  m_HasGenericRootTransform: 0
  m_HasMotionFloatCurves: 0
  m_Events: []
